…
Here is what the function returns for the 1st row of `random_points`:




::: {.cell}

```{.r .cell-code}
get_daymet(1)
```

::: {.cell-output .cell-output-stdout}

```
# A tibble: 1,095 × 11
    year  yday dayl..s. prcp..mm.day. srad..W.m.2. swe..kg.m.2. tmax..deg.c.
   <int> <int>    <dbl>         <dbl>        <dbl>        <dbl>        <dbl>
 1  2000     1   34131.             0         246.            0         7.02
 2  2000     2   34168.             0         251.            0         4.67
 3  2000     3   34208.             0         247.            0         7.32
 4  2000     4   34251              0         267.            0        10   
 5  2000     5   34297              0         240.            0         4.87
 6  2000     6   34346.             0         274.            0         7.79
 7  2000     7   34398.             0         262.            0         7.29
 8  2000     8   34453.             0         291.            0        11.2 
 9  2000     9   34510.             0         268.            0        10.0 
10  2000    10   34570.             0         277.            0        11.8 
# ℹ 1,085 more rows
# ℹ 4 more variables: tmin..deg.c. <dbl>, vp..Pa. <dbl>, site_id <int>,
#   date <date>
```
…
```{.r .cell-code}
(
  daymet_all_points <- 
    lapply(1:nrow(random_points), get_daymet) %>%
    #--- need to combine the list of data.frames into a single data.frame ---#
    dplyr::bind_rows()
)
```
:::

::: {.cell}
::: {.cell-output .cell-output-stdout}

```
# A tibble: 10,950 × 11
    year  yday dayl..s. prcp..mm.day. srad..W.m.2. swe..kg.m.2. tmax..deg.c.
   <dbl> <dbl>    <dbl>         <dbl>        <dbl>        <dbl>        <dbl>
 1  2000     1   33523.             0         230.            0         12  
 2  2000     2   33523.             0         240             0         11.5
 3  2000     3   33523.             0         243.            0         13.5
 4  2000     4   33523.             1         230.            0         13  
 5  2000     5   33523.             0         243.            0         14  
 6  2000     6   33523.             0         243.            0         13  
 7  2000     7   33523.             0         246.            0         14  
 8  2000     8   33869.             0         230.            0         13  
 9  2000     9   33869.             0         227.            0         12.5
10  2000    10   33869.             0         214.            0         14  
# ℹ 10,940 more rows
# ℹ 4 more variables: tmin..deg.c. <dbl>, vp..Pa. <dbl>, site_id <int>,
#   date <date>
```
…
