1 R as GIS: Demonstrations – R as GIS for Economists
…
Simple feature collection with 2396 features and 3 fields
Geometry type: POLYGON
Dimension:     XY
Bounding box:  xmin: 237904.5 ymin: 4428006 xmax: 313476.5 ymax: 4545687
Projected CRS: WGS 84 / UTM zone 14N
# A tibble: 2,396 × 4
# Groups:   site_no [401]
   site_no          year nearby_pumping                                 geometry
 * <chr>           <int>          <dbl>                            <POLYGON [m]>
 1 400012101323401  2007           571. ((286128 4431225, 286123.6 4431057, 286…
 2 400012101323401  2008           772. ((286128 4431225, 286123.6 4431057, 286…
 3 400012101323401  2009           500. ((286128 4431225, 286123.6 4431057, 286…
 4 400012101323401  2010           451. ((286128 4431225, 286123.6 4431057, 286…
 5 400012101323401  2011           545. ((286128 4431225, 286123.6 4431057, 286…
 6 400012101323401  2012          1028. ((286128 4431225, 286123.6 4431057, 286…
 7 400130101374401  2007           485. ((278847.4 4433844, 278843 4433675, 278…
 8 400130101374401  2008           515. ((278847.4 4433844, 278843 4433675, 278…
 9 400130101374401  2009           351. ((278847.4 4433844, 278843 4433675, 278…
10 400130101374401  2010           374. ((278847.4 4433844, 278843 4433675, 278…
# ℹ 2,386 more rows
…
#--- take a look ---#
dplyr::select(reg_data, site_no, year, dwt_dif, nearby_pumping)

# A tibble: 2,022 × 4
# Groups:   site_no [230]
   site_no          year dwt_dif nearby_pumping
   <chr>           <dbl>   <dbl>          <dbl>
 1 400130101374401  2011  NA               358.
 2 400134101483501  2007   2.87           2038.
 3 400134101483501  2008   0.780          2320.
 4 400134101483501  2009  -2.45           2096.
 5 400134101483501  2010   3.97           2432.
 6 400134101483501  2011   1.84           2634.
 7 400134101483501  2012  -1.35            985.
 8 400134101483501  2013  44.8              NA 
 9 400134101483501  2014 -26.7              NA 
10 400134101483501  2015  NA                NA 
# ℹ 2,012 more rows
…
(
  rail_length_county <-
    mutate(
      rails_IL_segmented,
      length_in_m = as.numeric(st_length(rails_IL_segmented))
    ) %>%
    #--- geometry no longer needed ---#
    st_drop_geometry() %>%
    #--- group by county ID ---#
    group_by(county_code) %>%
    #--- sum rail length by county ---#
    summarize(length_in_m = sum(length_in_m))
)

# A tibble: 82 × 2
   county_code length_in_m
   <chr>             <dbl>
 1 001              77221.
 2 003              77293.
 3 007              36757.
 4 011             255425.
 5 015             161620.
 6 017              30585.
 7 019             389226.
 8 021             155749.
 9 023              78592.
10 025              92030.
# ℹ 72 more rows
…
