3 Spatial Interactions of Vector Data: Subsetting and Joining – R as GIS for Economists
…
As seen in the resulting dataset, each unique polygon-point intersection forms an observation. For each polygon, there will be as many observations as there are wells intersecting with that polygon. After joining the two layers, you can calculate statistics for each polygon (in this case, each county). Since the goal is to calculate groundwater extraction by county, the following code will accomplish this:

KS_County_wells %>% 
  dplyr::group_by(COUNTYFP) %>% 
  dplyr::summarize(af_used = sum(af_used, na.rm = TRUE)) 

Simple feature collection with 105 features and 2 fields
Geometry type: MULTIPOLYGON
Dimension:     XY
Bounding box:  xmin: 229253.5 ymin: 4094801 xmax: 890007.5 ymax: 4434288
Projected CRS: WGS 84 / UTM zone 14N
# A tibble: 105 × 3
   COUNTYFP af_used                                                     geometry
   <fct>      <dbl>                                           <MULTIPOLYGON [m]>
 1 001           0  (((806387 4191583, 805512 4215779, 844240.9 4217265, 845100…
 2 003           0  (((804971.3 4254894, 843634.8 4256415, 844240.9 4217265, 80…
 3 005         771. (((794798 4394875, 814054.6 4395649, 833328.7 4396412, 8396…
 4 007        4972. (((498886 4147060, 547336.9 4147260, 547367.8 4137622, 5575…
 5 009       61083. (((497132.8 4283127, 544688.2 4283265, 545236.6 4281565, 54…
 6 011           0  (((844767.7 4183342, 845100.4 4193068, 844240.9 4217265, 88…
 7 013         480. (((774189.2 4432752, 774491.2 4432762, 812462.5 4434180, 81…
 8 015         343. (((662406.7 4197742, 661982.8 4217157, 689364.6 4217517, 71…
 9 017           0  (((688956.3 4246711, 690085.5 4266038, 730694.2 4267016, 73…
10 019           0  (((719369.2 4131329, 769067.5 4132390, 770145.1 4099095, 76…
# ℹ 95 more rows
…
Simple feature collection with 55 features and 2 fields
Geometry type: GEOMETRY
Dimension:     XY
Bounding box:  xmin: 203228.6 ymin: 4470941 xmax: 736832.9 ymax: 4822687
Projected CRS: NAD83 / UTM zone 15N
# A tibble: 55 × 3
   HUC_CODE aw_acres                                                    geometry
   <chr>       <dbl>                                              <GEOMETRY [m]>
 1 07020009  251185. POLYGON ((421060.3 4797550, 420940.3 4797420, 420860.3 479…
 2 07040008  165000  POLYGON ((602922.4 4817166, 602862.4 4816996, 602772.4 481…
 3 07060001  105234. MULTIPOLYGON (((649333.8 4761761, 648933.7 4761621, 648793…
 4 07060002  140201. MULTIPOLYGON (((593780.7 4816946, 594000.7 4816865, 594380…
 5 07060003  149000  MULTIPOLYGON (((692011.6 4712966, 691981.6 4712956, 691881…
 6 07060004  162123. POLYGON ((652046.5 4718813, 651916.4 4718783, 651786.4 471…
 7 07060005  142428. POLYGON ((734140.4 4642126, 733620.4 4641926, 733520.3 464…
 8 07060006  159635. POLYGON ((673976.9 4651911, 673950.7 4651910, 673887.8 465…
 9 07080101  115572. POLYGON ((666760.8 4558401, 666630.9 4558362, 666510.8 455…
10 07080102  160008. POLYGON ((576151.1 4706650, 575891 4706810, 575741 4706890…
# ℹ 45 more rows
…
