5 Spatial Interactions of Vector and Raster Data – R as GIS for Economists
…
As you can see, now you have fraction column to the resulting data.frame and you can find area-weighted summary of the extracted values like this:

tmax_by_county_from_stack %>%
  group_by(ID) %>%
  summarize(
    tmax_0701 = sum(fraction * PRISM_tmax_stable_4kmD2_20180701_bil) / sum(fraction),
    tmax_0702 = sum(fraction * PRISM_tmax_stable_4kmD2_20180702_bil) / sum(fraction)
  )

# A tibble: 105 × 3
      ID tmax_0701 tmax_0702
   <dbl>     <dbl>     <dbl>
 1     1      34.5      30.5
 2     2      34.5      29.8
 3     3      33.6      31.2
 4     4      32.3      29.5
 5     5      32.6      28.7
 6     6      35.7      28.8
 7     7      34.0      30.6
 8     8      33.4      29.9
 9     9      32.9      30.4
10    10      33.4      30.6
# ℹ 95 more rows
…
For each element of the list, you see value and coverage_fraction. value is the tmax value of the intersecting raster cells, and coverage_fraction is the fraction of the intersecting area relative to the full raster grid, which can help find coverage-weighted summary of the extracted values (like fraction variable when you use terra::extract() with exact = TRUE).

We can take advantage of dplyr::bind_rows() to combine the list of the datasets into a single data.frame.

(
  #--- combine ---#
  tmax_combined <- 
    tmax_by_county %>%
    dplyr::bind_rows() %>%
    tibble::as_tibble()
)

# A tibble: 15,149 × 3
   COUNTYFP value coverage_fraction
   <chr>    <dbl>             <dbl>
 1 175       34.2             0.107
 2 175       34.2             0.807
 3 175       34.2             0.807
 4 175       34.2             0.807
 5 175       34.2             0.806
 6 175       34.3             0.805
 7 175       34.3             0.805
 8 175       34.2             0.805
 9 175       34.2             0.803
10 175       34.2             0.803
# ℹ 15,139 more rows
…
Let’s summarize the data by COUNTYFP and then merge it back to the polygons sf data. Here, we calculate coverage-weighted mean of tmax.

#--- weighted mean ---#
(
  tmax_by_county <-
    tmax_combined %>%
    #--- group summary ---#
    dplyr::group_by(COUNTYFP) %>%
    dplyr::summarise(tmax_aw = sum(value * coverage_fraction) / sum(coverage_fraction))
)

# A tibble: 105 × 2
   COUNTYFP tmax_aw
   <chr>      <dbl>
 1 001         34.3
 2 003         34.9
 3 005         35.3
 4 007         34.1
 5 009         32.9
 6 011         34.8
 7 013         34.9
 8 015         34.3
 9 017         35.8
10 019         33.4
# ℹ 95 more rows
…
In order to find the coverage-weighted tmax by date, you can first pivot it to a long format using tidyr::pivot_longer().

#--- pivot to a longer format ---#
(
  tmax_long <-
    tidyr::pivot_longer(
      tmax_all_combined,
      -c(COUNTYFP, coverage_fraction),
      names_to = "date",
      values_to = "tmax"
    )
)

# A tibble: 30,298 × 4
   COUNTYFP coverage_fraction date                                  tmax
   <chr>                <dbl> <chr>                                <dbl>
 1 175                  0.107 PRISM_tmax_stable_4kmD2_20180701_bil  34.2
 2 175                  0.107 PRISM_tmax_stable_4kmD2_20180702_bil  30.5
 3 175                  0.807 PRISM_tmax_stable_4kmD2_20180701_bil  34.2
 4 175                  0.807 PRISM_tmax_stable_4kmD2_20180702_bil  30.4
 5 175                  0.807 PRISM_tmax_stable_4kmD2_20180701_bil  34.2
 6 175                  0.807 PRISM_tmax_stable_4kmD2_20180702_bil  30.3
 7 175                  0.807 PRISM_tmax_stable_4kmD2_20180701_bil  34.2
 8 175                  0.807 PRISM_tmax_stable_4kmD2_20180702_bil  30.2
 9 175                  0.806 PRISM_tmax_stable_4kmD2_20180701_bil  34.2
10 175                  0.806 PRISM_tmax_stable_4kmD2_20180702_bil  30.2
# ℹ 30,288 more rows

And then find coverage-weighted tmax by date:

(
  tmax_long %>%
    dplyr::group_by(COUNTYFP, date) %>%
    dplyr::summarize(tmax = sum(tmax * coverage_fraction) / sum(coverage_fraction))
)

# A tibble: 210 × 3
# Groups:   COUNTYFP [105]
   COUNTYFP date                                  tmax
   <chr>    <chr>                                <dbl>
 1 001      PRISM_tmax_stable_4kmD2_20180701_bil  34.3
 2 001      PRISM_tmax_stable_4kmD2_20180702_bil  29.4
 3 003      PRISM_tmax_stable_4kmD2_20180701_bil  34.9
 4 003      PRISM_tmax_stable_4kmD2_20180702_bil  29.4
 5 005      PRISM_tmax_stable_4kmD2_20180701_bil  35.3
 6 005      PRISM_tmax_stable_4kmD2_20180702_bil  28.9
 7 007      PRISM_tmax_stable_4kmD2_20180701_bil  34.1
 8 007      PRISM_tmax_stable_4kmD2_20180702_bil  29.7
 9 009      PRISM_tmax_stable_4kmD2_20180701_bil  32.9
10 009      PRISM_tmax_stable_4kmD2_20180702_bil  29.8
# ℹ 200 more rows
…
head(extacted_mean)

Notice that you use append_cols instead of include_cols when you summarize within exactextractr::exact_extract().

(
mean_tmax_long <- 
  extacted_mean %>% 
  #--- wide to long ---#
  pivot_longer(-COUNTYFP, names_to = "date", values_to = "tmax") %>%
  #--- recover date ---#
  dplyr::mutate(date = gsub("mean.date", "", date) %>% lubridate::ymd())
)

# A tibble: 210 × 3
   COUNTYFP date    tmax
   <chr>    <date> <dbl>
 1 175      NA      34.5
 2 175      NA      30.5
 3 027      NA      34.5
 4 027      NA      29.8
 5 171      NA      33.6
 6 171      NA      31.2
 7 047      NA      32.3
 8 047      NA      29.5
 9 147      NA      32.6
10 147      NA      28.7
# ℹ 200 more rows
…
