6 Spatiotemporal Raster Data Handling with stars – R as GIS for Economists
…
(
extracted_tmax_long <- 
  extracted_tmax_sf %>%
  tidyr::pivot_longer(- geometry, names_to = "date", values_to = "tmax") %>% 
  sf::st_as_sf() %>% 
  mutate(date = lubridate::ymd(date))
)

Simple feature collection with 376470 features and 2 fields
Geometry type: POINT
Dimension:     XY
Bounding box:  xmin: -102.0495 ymin: 36.99552 xmax: -94.62089 ymax: 40.00199
Geodetic CRS:  NAD83
# A tibble: 376,470 × 3
               geometry date        tmax
 *          <POINT [°]> <date>     <dbl>
 1 (-100.4423 37.52046) 2009-08-01  30.1
 2 (-100.4423 37.52046) 2009-08-02  27.1
 3 (-100.4423 37.52046) 2009-08-03  32.3
 4 (-100.4423 37.52046) 2009-08-04  37.5
 5 (-100.4423 37.52046) 2009-08-05  34.0
 6 (-100.4423 37.52046) 2009-08-06  32.6
 7 (-100.4423 37.52046) 2009-08-07  33.7
 8 (-100.4423 37.52046) 2009-08-08  36.5
 9 (-100.4423 37.52046) 2009-08-09  37.6
10 (-100.4423 37.52046) 2009-08-10  31.5
# ℹ 376,460 more rows
…
(
extracted_tmax_long <- 
  extracted_tmax_sf %>% 
  mutate(well_id = KS_wells$well_id) %>% 
  pivot_longer(c(- geometry, - well_id), names_to = "date", values_to = "tmax") %>% 
  st_as_sf() %>% 
  mutate(date = ymd(date))
)

Simple feature collection with 376470 features and 3 fields
Geometry type: POINT
Dimension:     XY
Bounding box:  xmin: -102.0495 ymin: 36.99552 xmax: -94.62089 ymax: 40.00199
Geodetic CRS:  NAD83
# A tibble: 376,470 × 4
               geometry well_id date        tmax
 *          <POINT [°]>   <dbl> <date>     <dbl>
 1 (-100.4423 37.52046)       1 2009-08-01  30.1
 2 (-100.4423 37.52046)       1 2009-08-02  27.1
 3 (-100.4423 37.52046)       1 2009-08-03  32.3
 4 (-100.4423 37.52046)       1 2009-08-04  37.5
 5 (-100.4423 37.52046)       1 2009-08-05  34.0
 6 (-100.4423 37.52046)       1 2009-08-06  32.6
 7 (-100.4423 37.52046)       1 2009-08-07  33.7
 8 (-100.4423 37.52046)       1 2009-08-08  36.5
 9 (-100.4423 37.52046)       1 2009-08-09  37.6
10 (-100.4423 37.52046)       1 2009-08-10  31.5
# ℹ 376,460 more rows
…
    c(-COUNTYFP, -coverage_fraction),
    names_to = "date",
    values_to = "tmax"
  ) %>%
  #--- remove date  ---#
  dplyr::mutate(
    #--- remove "date" from date and then convert it to Date ---#
    date = gsub("date", "", date) %>% lubridate::ymd()
  ) %>%
  #--- mean area-weighted tmax by county-date ---#
  dplyr::group_by(COUNTYFP, date) %>%
  na.omit() %>%
  dplyr::summarize(sum(tmax * coverage_fraction)/sum(coverage_fraction))

# A tibble: 960 × 3
# Groups:   COUNTYFP [96]
   COUNTYFP date       `sum(tmax * coverage_fraction)/sum(coverage_fraction)`
   <chr>    <date>                                                      <dbl>
 1 005      2009-08-01                                                   28.2
 2 005      2009-08-02                                                   26.0
 3 005      2009-08-03                                                   29.3
 4 005      2009-08-04                                                   33.6
 5 005      2009-08-05                                                   30.4
 6 005      2009-08-06                                                   28.1
 7 005      2009-08-07                                                   28.9
 8 005      2009-08-08                                                   33.3
 9 005      2009-08-09                                                   34.8
10 005      2009-08-10                                                   34.4
# ℹ 950 more rows
…
head(extacted_mean)

Notice that you use append_cols instead of include_cols when you summarize within exactextractr::exact_extract().

(
mean_tmax_long <- 
  extacted_mean %>% 
  #--- wide to long ---#
  pivot_longer(-COUNTYFP, names_to = "date", values_to = "tmax") %>%
  #--- recover date ---#
  dplyr::mutate(date = gsub("mean.date", "", date) %>% lubridate::ymd())
)

# A tibble: 1,050 × 3
   COUNTYFP date        tmax
   <chr>    <date>     <dbl>
 1 175      2009-08-01  30.8
 2 175      2009-08-02  27.7
 3 175      2009-08-03  34.0
 4 175      2009-08-04  37.2
 5 175      2009-08-05  34.8
 6 175      2009-08-06  33.9
 7 175      2009-08-07  35.2
 8 175      2009-08-08  36.8
 9 175      2009-08-09  38.0
10 175      2009-08-10  32.3
# ℹ 1,040 more rows
…
